111111111110000000000000000000
000000000010000000000000000000
000000000010000000000000000000
000000000010000000000000000000
000000000010000000000000000000
000000000010000000000000000000
000000000010000000000000000000
000000000010000000000000000000
000000000010000000000000000000
000000000010000000000000000000
000000000011111111111100000000
011111111111111111111100000000
000000000000000000000000000000
000000000000000000000000000000
000000000000000000000000000000
000000000000000000000000000000
000000000000000000000000000000
000000000000000000000000000000
000000000000000000000000000000
000000000000000000000000000000
000000000000000000000000000000
000000000000000000000000000000
000000000000000000000000000000
000000000000000000000000000000
000000000000000000000000000000
000000000000000000000000000000
000000000000000000000000000000
000000000000000000000000000000
000000000000000000000000000000
000000000000000000000000000000
